# Blender v2.79 (sub 0) OBJ File: ''
# www.blender.org
v 2.250002 0.684631 -0.592662
v 2.216509 0.809631 -0.592662
v 2.125002 0.901137 -0.592662
v 2.000002 0.934631 -0.592662
v 1.875002 0.901137 -0.592662
v 1.783496 0.809631 -0.592662
v 1.750002 0.684631 -0.592662
v 1.783496 0.559631 -0.592662
v 1.875002 0.468125 -0.592662
v 2.000002 0.434631 -0.592662
v 2.125002 0.468125 -0.592662
v 2.216509 0.559631 -0.592662
v 2.239308 0.684631 -0.755820
v 2.206101 0.809631 -0.751448
v 2.115378 0.901137 -0.739504
v 1.991447 0.934631 -0.723188
v 1.867517 0.901137 -0.706872
v 1.776793 0.809631 -0.694928
v 1.743586 0.684631 -0.690557
v 1.776793 0.559631 -0.694928
v 1.867517 0.468125 -0.706872
v 1.991447 0.434631 -0.723188
v 2.115378 0.468125 -0.739504
v 2.206101 0.559631 -0.751448
v 2.207410 0.684631 -0.916186
v 2.175057 0.809631 -0.907517
v 2.086669 0.901137 -0.883833
v 1.965928 0.934631 -0.851481
v 1.845187 0.901137 -0.819129
v 1.756799 0.809631 -0.795445
v 1.724447 0.684631 -0.786776
v 1.756799 0.559631 -0.795445
v 1.845187 0.468125 -0.819129
v 1.965928 0.434631 -0.851481
v 2.086669 0.468125 -0.883833
v 2.175057 0.559631 -0.907517
v 2.154852 0.684631 -1.071016
v 2.123908 0.809631 -1.058199
v 2.039367 0.901137 -1.023181
v 1.923882 0.934631 -0.975345
v 1.808397 0.901137 -0.927510
v 1.723856 0.809631 -0.892492
v 1.692912 0.684631 -0.879674
v 1.723856 0.559631 -0.892492
v 1.808397 0.468125 -0.927510
v 1.923882 0.434631 -0.975345
v 2.039367 0.468125 -1.023181
v 2.123908 0.559631 -1.058199
v 2.082534 0.684631 -1.217662
v 2.053528 0.809631 -1.200915
v 1.974281 0.901137 -1.155162
v 1.866028 0.934631 -1.092662
v 1.757775 0.901137 -1.030162
v 1.678528 0.809631 -0.984409
v 1.649521 0.684631 -0.967662
v 1.678528 0.559631 -0.984409
v 1.757775 0.468125 -1.030162
v 1.866028 0.434631 -1.092662
v 1.974281 0.468125 -1.155162
v 2.053528 0.559631 -1.200915
v 1.991694 0.684631 -1.353614
v 1.965122 0.809631 -1.333224
v 1.892525 0.901137 -1.277518
v 1.793356 0.934631 -1.201423
v 1.694187 0.901137 -1.125328
v 1.621590 0.809631 -1.069623
v 1.595017 0.684631 -1.049233
v 1.621590 0.559631 -1.069623
v 1.694187 0.468125 -1.125328
v 1.793356 0.434631 -1.201423
v 1.892525 0.468125 -1.277518
v 1.965122 0.559631 -1.333224
v 1.883886 0.684631 -1.476545
v 1.860202 0.809631 -1.452862
v 1.795497 0.901137 -1.388157
v 1.707109 0.934631 -1.299769
v 1.618721 0.901137 -1.211380
v 1.554016 0.809631 -1.146676
v 1.530332 0.684631 -1.122992
v 1.554016 0.559631 -1.146676
v 1.618721 0.468125 -1.211380
v 1.707109 0.434631 -1.299769
v 1.795497 0.468125 -1.388157
v 1.860202 0.559631 -1.452862
v 1.760954 0.684631 -1.584353
v 1.740565 0.809631 -1.557781
v 1.684859 0.901137 -1.485184
v 1.608764 0.934631 -1.386015
v 1.532669 0.901137 -1.286846
v 1.476963 0.809631 -1.214249
v 1.456573 0.684631 -1.187677
v 1.476963 0.559631 -1.214249
v 1.532669 0.468125 -1.286846
v 1.608764 0.434631 -1.386015
v 1.684859 0.468125 -1.485184
v 1.740565 0.559631 -1.557781
v 1.625002 0.684631 -1.675194
v 1.608256 0.809631 -1.646187
v 1.562502 0.901137 -1.566941
v 1.500002 0.934631 -1.458687
v 1.437502 0.901137 -1.350434
v 1.391749 0.809631 -1.271187
v 1.375002 0.684631 -1.242181
v 1.391749 0.559631 -1.271187
v 1.437502 0.468125 -1.350434
v 1.500002 0.434631 -1.458687
v 1.562502 0.468125 -1.566941
v 1.608256 0.559631 -1.646187
v 1.478357 0.684631 -1.747511
v 1.465539 0.809631 -1.716567
v 1.430521 0.901137 -1.632026
v 1.382686 0.934631 -1.516541
v 1.334851 0.901137 -1.401056
v 1.299833 0.809631 -1.316516
v 1.287015 0.684631 -1.285572
v 1.299833 0.559631 -1.316516
v 1.334851 0.468125 -1.401056
v 1.382686 0.434631 -1.516541
v 1.430521 0.468125 -1.632026
v 1.465539 0.559631 -1.716567
v 1.323526 0.684631 -1.800069
v 1.314857 0.809631 -1.767717
v 1.291174 0.901137 -1.679328
v 1.258821 0.934631 -1.558588
v 1.226469 0.901137 -1.437847
v 1.202785 0.809631 -1.349459
v 1.194117 0.684631 -1.317106
v 1.202785 0.559631 -1.349459
v 1.226469 0.468125 -1.437847
v 1.258821 0.434631 -1.558588
v 1.291174 0.468125 -1.679328
v 1.314857 0.559631 -1.767717
v 1.163160 0.684631 -1.831968
v 1.158788 0.809631 -1.798761
v 1.146844 0.901137 -1.708037
v 1.130528 0.934631 -1.584107
v 1.114213 0.901137 -1.460176
v 1.102269 0.809631 -1.369453
v 1.097897 0.684631 -1.336246
v 1.102269 0.559631 -1.369453
v 1.114213 0.468125 -1.460176
v 1.130528 0.434631 -1.584107
v 1.146844 0.468125 -1.708037
v 1.158788 0.559631 -1.798761
v 1.000003 0.684631 -1.842662
v 1.000003 0.809631 -1.809168
v 1.000003 0.901137 -1.717662
v 1.000003 0.934631 -1.592662
v 1.000003 0.901137 -1.467662
v 1.000002 0.809631 -1.376156
v 1.000002 0.684631 -1.342662
v 1.000002 0.559631 -1.376156
v 1.000003 0.468125 -1.467662
v 1.000003 0.434631 -1.592662
v 1.000003 0.468125 -1.717662
v 1.000003 0.559631 -1.809168
v 0.836844 0.684631 -1.831968
v 0.841216 0.809631 -1.798761
v 0.853160 0.901137 -1.708037
v 0.869476 0.934631 -1.584107
v 0.885792 0.901137 -1.460176
v 0.897736 0.809631 -1.369453
v 0.902108 0.684631 -1.336246
v 0.897736 0.559631 -1.369453
v 0.885792 0.468125 -1.460176
v 0.869476 0.434631 -1.584107
v 0.853160 0.468125 -1.708037
v 0.841216 0.559631 -1.798761
v 0.676479 0.684631 -1.800069
v 0.685148 0.809631 -1.767717
v 0.708831 0.901137 -1.679328
v 0.741183 0.934631 -1.558588
v 0.773536 0.901137 -1.437847
v 0.797219 0.809631 -1.349459
v 0.805888 0.684631 -1.317106
v 0.797219 0.559631 -1.349459
v 0.773536 0.468125 -1.437847
v 0.741183 0.434631 -1.558588
v 0.708831 0.468125 -1.679328
v 0.685148 0.559631 -1.767717
v 0.521648 0.684631 -1.747511
v 0.534465 0.809631 -1.716567
v 0.569483 0.901137 -1.632026
v 0.617319 0.934631 -1.516541
v 0.665154 0.901137 -1.401057
v 0.700172 0.809631 -1.316516
v 0.712990 0.684631 -1.285572
v 0.700172 0.559631 -1.316516
v 0.665154 0.468125 -1.401057
v 0.617319 0.434631 -1.516541
v 0.569483 0.468125 -1.632026
v 0.534465 0.559631 -1.716567
v 0.375003 0.684631 -1.675194
v 0.391749 0.809631 -1.646188
v 0.437503 0.901137 -1.566941
v 0.500003 0.934631 -1.458687
v 0.562503 0.901137 -1.350434
v 0.608256 0.809631 -1.271187
v 0.625003 0.684631 -1.242181
v 0.608256 0.559631 -1.271187
v 0.562503 0.468125 -1.350434
v 0.500003 0.434631 -1.458687
v 0.437503 0.468125 -1.566941
v 0.391749 0.559631 -1.646188
v 0.239051 0.684631 -1.584354
v 0.259440 0.809631 -1.557781
v 0.315146 0.901137 -1.485184
v 0.391241 0.934631 -1.386015
v 0.467336 0.901137 -1.286846
v 0.523042 0.809631 -1.214249
v 0.543431 0.684631 -1.187677
v 0.523042 0.559631 -1.214249
v 0.467336 0.468125 -1.286846
v 0.391241 0.434631 -1.386015
v 0.315146 0.468125 -1.485184
v 0.259440 0.559631 -1.557781
v 0.116119 0.684631 -1.476545
v 0.139802 0.809631 -1.452862
v 0.204507 0.901137 -1.388157
v 0.292895 0.934631 -1.299768
v 0.381284 0.901137 -1.211380
v 0.445989 0.809631 -1.146675
v 0.469672 0.684631 -1.122992
v 0.445989 0.559631 -1.146675
v 0.381284 0.468125 -1.211380
v 0.292895 0.434631 -1.299768
v 0.204507 0.468125 -1.388157
v 0.139802 0.559631 -1.452862
v 0.008311 0.684631 -1.353614
v 0.034883 0.809631 -1.333224
v 0.107480 0.901137 -1.277519
v 0.206649 0.934631 -1.201423
v 0.305818 0.901137 -1.125328
v 0.378415 0.809631 -1.069623
v 0.404987 0.684631 -1.049233
v 0.378415 0.559631 -1.069623
v 0.305818 0.468125 -1.125328
v 0.206649 0.434631 -1.201423
v 0.107480 0.468125 -1.277519
v 0.034883 0.559631 -1.333224
v -0.082529 0.684631 -1.217662
v -0.053523 0.809631 -1.200915
v 0.025724 0.901137 -1.155162
v 0.133977 0.934631 -1.092662
v 0.242230 0.901137 -1.030162
v 0.321477 0.809631 -0.984409
v 0.350483 0.684631 -0.967662
v 0.321477 0.559631 -0.984409
v 0.242230 0.468125 -1.030162
v 0.133977 0.434631 -1.092662
v 0.025724 0.468125 -1.155162
v -0.053523 0.559631 -1.200915
v -0.154847 0.684631 -1.071016
v -0.123903 0.809631 -1.058199
v -0.039362 0.901137 -1.023181
v 0.076123 0.934631 -0.975345
v 0.191608 0.901137 -0.927510
v 0.276149 0.809631 -0.892492
v 0.307093 0.684631 -0.879675
v 0.276149 0.559631 -0.892492
v 0.191608 0.468125 -0.927510
v 0.076123 0.434631 -0.975345
v -0.039362 0.468125 -1.023181
v -0.123903 0.559631 -1.058199
v -0.207405 0.684631 -0.916186
v -0.175053 0.809631 -0.907517
v -0.086664 0.901137 -0.883833
v 0.034077 0.934631 -0.851481
v 0.154817 0.901137 -0.819129
v 0.243206 0.809631 -0.795445
v 0.275558 0.684631 -0.786776
v 0.243206 0.559631 -0.795445
v 0.154817 0.468125 -0.819129
v 0.034077 0.434631 -0.851481
v -0.086664 0.468125 -0.883833
v -0.175053 0.559631 -0.907517
v -0.239304 0.684631 -0.755820
v -0.206097 0.809631 -0.751448
v -0.115373 0.901137 -0.739504
v 0.008558 0.934631 -0.723188
v 0.132488 0.901137 -0.706872
v 0.223212 0.809631 -0.694928
v 0.256419 0.684631 -0.690557
v 0.223212 0.559631 -0.694928
v 0.132488 0.468125 -0.706872
v 0.008558 0.434631 -0.723188
v -0.115373 0.468125 -0.739504
v -0.206097 0.559631 -0.751448
v -0.249998 0.684631 -0.592662
v -0.216504 0.809631 -0.592662
v -0.124998 0.901137 -0.592662
v 0.000002 0.934631 -0.592662
v 0.125002 0.901137 -0.592662
v 0.216509 0.809631 -0.592662
v 0.250002 0.684631 -0.592662
v 0.216509 0.559631 -0.592662
v 0.125002 0.468125 -0.592662
v 0.000002 0.434631 -0.592662
v -0.124998 0.468125 -0.592662
v -0.216504 0.559631 -0.592662
v -0.239304 0.684631 -0.429504
v -0.206097 0.809631 -0.433876
v -0.115373 0.901137 -0.445820
v 0.008558 0.934631 -0.462136
v 0.132488 0.901137 -0.478451
v 0.223212 0.809631 -0.490395
v 0.256419 0.684631 -0.494767
v 0.223212 0.559631 -0.490395
v 0.132488 0.468125 -0.478451
v 0.008558 0.434631 -0.462136
v -0.115373 0.468125 -0.445820
v -0.206097 0.559631 -0.433876
v -0.207405 0.684631 -0.269138
v -0.175053 0.809631 -0.277807
v -0.086664 0.901137 -0.301491
v 0.034077 0.934631 -0.333843
v 0.154817 0.901137 -0.366195
v 0.243206 0.809631 -0.389879
v 0.275558 0.684631 -0.398548
v 0.243206 0.559631 -0.389879
v 0.154817 0.468125 -0.366195
v 0.034077 0.434631 -0.333843
v -0.086664 0.468125 -0.301491
v -0.175053 0.559631 -0.277807
v -0.154847 0.684631 -0.114308
v -0.123903 0.809631 -0.127126
v -0.039362 0.901137 -0.162143
v 0.076123 0.934631 -0.209979
v 0.191608 0.901137 -0.257814
v 0.276149 0.809631 -0.292832
v 0.307093 0.684631 -0.305650
v 0.276149 0.559631 -0.292832
v 0.191608 0.468125 -0.257814
v 0.076123 0.434631 -0.209979
v -0.039362 0.468125 -0.162143
v -0.123903 0.559631 -0.127126
v -0.082530 0.684631 0.032338
v -0.053523 0.809631 0.015591
v 0.025724 0.901137 -0.030162
v 0.133977 0.934631 -0.092662
v 0.242230 0.901137 -0.155162
v 0.321477 0.809631 -0.200915
v 0.350483 0.684631 -0.217662
v 0.321477 0.559631 -0.200915
v 0.242230 0.468125 -0.155162
v 0.133977 0.434631 -0.092662
v 0.025724 0.468125 -0.030162
v -0.053523 0.559631 0.015591
v 0.008311 0.684631 0.168290
v 0.034883 0.809631 0.147900
v 0.107480 0.901137 0.092195
v 0.206649 0.934631 0.016100
v 0.305818 0.901137 -0.059996
v 0.378415 0.809631 -0.115701
v 0.404987 0.684631 -0.136091
v 0.378415 0.559631 -0.115701
v 0.305818 0.468125 -0.059996
v 0.206649 0.434631 0.016100
v 0.107480 0.468125 0.092195
v 0.034883 0.559631 0.147900
v 0.116119 0.684631 0.291221
v 0.139802 0.809631 0.267538
v 0.204507 0.901137 0.202833
v 0.292895 0.934631 0.114445
v 0.381284 0.901137 0.026056
v 0.445989 0.809631 -0.038648
v 0.469672 0.684631 -0.062332
v 0.445989 0.559631 -0.038648
v 0.381284 0.468125 0.026056
v 0.292895 0.434631 0.114445
v 0.204507 0.468125 0.202833
v 0.139802 0.559631 0.267538
v 0.239050 0.684631 0.399029
v 0.259440 0.809631 0.372457
v 0.315145 0.901137 0.299860
v 0.391241 0.934631 0.200691
v 0.467336 0.901137 0.101522
v 0.523041 0.809631 0.028925
v 0.543431 0.684631 0.002353
v 0.523041 0.559631 0.028925
v 0.467336 0.468125 0.101522
v 0.391241 0.434631 0.200691
v 0.315145 0.468125 0.299860
v 0.259440 0.559631 0.372457
v 0.375003 0.684631 0.489870
v 0.391749 0.809631 0.460864
v 0.437503 0.901137 0.381617
v 0.500003 0.934631 0.273364
v 0.562503 0.901137 0.165110
v 0.608256 0.809631 0.085864
v 0.625003 0.684631 0.056857
v 0.608256 0.559631 0.085864
v 0.562503 0.468125 0.165110
v 0.500003 0.434631 0.273364
v 0.437503 0.468125 0.381617
v 0.391749 0.559631 0.460864
v 0.521648 0.684631 0.562187
v 0.534465 0.809631 0.531243
v 0.569483 0.901137 0.446703
v 0.617319 0.934631 0.331218
v 0.665154 0.901137 0.215733
v 0.700172 0.809631 0.131192
v 0.712990 0.684631 0.100248
v 0.700172 0.559631 0.131192
v 0.665154 0.468125 0.215733
v 0.617319 0.434631 0.331218
v 0.569483 0.468125 0.446703
v 0.534465 0.559631 0.531243
v 0.676478 0.684631 0.614745
v 0.685147 0.809631 0.582393
v 0.708831 0.901137 0.494005
v 0.741183 0.934631 0.373264
v 0.773535 0.901137 0.252523
v 0.797219 0.809631 0.164135
v 0.805888 0.684631 0.131782
v 0.797219 0.559631 0.164135
v 0.773535 0.468125 0.252523
v 0.741183 0.434631 0.373264
v 0.708831 0.468125 0.494005
v 0.685147 0.559631 0.582393
v 0.836844 0.684631 0.646644
v 0.841216 0.809631 0.613437
v 0.853160 0.901137 0.522713
v 0.869476 0.934631 0.398783
v 0.885791 0.901137 0.274852
v 0.897735 0.809631 0.184129
v 0.902107 0.684631 0.150922
v 0.897735 0.559631 0.184129
v 0.885791 0.468125 0.274852
v 0.869476 0.434631 0.398783
v 0.853160 0.468125 0.522713
v 0.841216 0.559631 0.613437
v 1.000003 0.684631 0.657338
v 1.000003 0.809631 0.623844
v 1.000003 0.901137 0.532338
v 1.000003 0.934631 0.407338
v 1.000003 0.901137 0.282338
v 1.000002 0.809631 0.190832
v 1.000002 0.684631 0.157338
v 1.000002 0.559631 0.190832
v 1.000003 0.468125 0.282338
v 1.000003 0.434631 0.407338
v 1.000003 0.468125 0.532338
v 1.000003 0.559631 0.623844
v 1.163160 0.684631 0.646644
v 1.158788 0.809631 0.613437
v 1.146844 0.901137 0.522714
v 1.130528 0.934631 0.398783
v 1.114213 0.901137 0.274852
v 1.102269 0.809631 0.184129
v 1.097897 0.684631 0.150922
v 1.102269 0.559631 0.184129
v 1.114213 0.468125 0.274852
v 1.130528 0.434631 0.398783
v 1.146844 0.468125 0.522714
v 1.158788 0.559631 0.613437
v 1.323526 0.684631 0.614746
v 1.314857 0.809631 0.582393
v 1.291173 0.901137 0.494005
v 1.258821 0.934631 0.373264
v 1.226469 0.901137 0.252523
v 1.202785 0.809631 0.164135
v 1.194116 0.684631 0.131783
v 1.202785 0.559631 0.164135
v 1.226469 0.468125 0.252523
v 1.258821 0.434631 0.373264
v 1.291173 0.468125 0.494005
v 1.314857 0.559631 0.582393
v 1.478357 0.684631 0.562187
v 1.465539 0.809631 0.531243
v 1.430521 0.901137 0.446702
v 1.382686 0.934631 0.331218
v 1.334851 0.901137 0.215733
v 1.299833 0.809631 0.131192
v 1.287015 0.684631 0.100248
v 1.299833 0.559631 0.131192
v 1.334851 0.468125 0.215733
v 1.382686 0.434631 0.331218
v 1.430521 0.468125 0.446702
v 1.465539 0.559631 0.531243
v 1.625002 0.684631 0.489870
v 1.608256 0.809631 0.460864
v 1.562502 0.901137 0.381617
v 1.500002 0.934631 0.273364
v 1.437502 0.901137 0.165110
v 1.391749 0.809631 0.085864
v 1.375002 0.684631 0.056857
v 1.391749 0.559631 0.085864
v 1.437502 0.468125 0.165110
v 1.500002 0.434631 0.273364
v 1.562502 0.468125 0.381617
v 1.608256 0.559631 0.460864
v 1.760954 0.684631 0.399030
v 1.740564 0.809631 0.372458
v 1.684859 0.901137 0.299861
v 1.608764 0.934631 0.200692
v 1.532668 0.901137 0.101522
v 1.476963 0.809631 0.028925
v 1.456573 0.684631 0.002353
v 1.476963 0.559631 0.028925
v 1.532668 0.468125 0.101522
v 1.608764 0.434631 0.200692
v 1.684859 0.468125 0.299861
v 1.740564 0.559631 0.372458
v 1.883885 0.684631 0.291222
v 1.860202 0.809631 0.267538
v 1.795497 0.901137 0.202834
v 1.707109 0.934631 0.114445
v 1.618721 0.901137 0.026057
v 1.554016 0.809631 -0.038648
v 1.530332 0.684631 -0.062331
v 1.554016 0.559631 -0.038648
v 1.618721 0.468125 0.026057
v 1.707109 0.434631 0.114445
v 1.795497 0.468125 0.202834
v 1.860202 0.559631 0.267538
v 1.991694 0.684631 0.168290
v 1.965122 0.809631 0.147900
v 1.892525 0.901137 0.092195
v 1.793356 0.934631 0.016099
v 1.694187 0.901137 -0.059996
v 1.621590 0.809631 -0.115701
v 1.595017 0.684631 -0.136091
v 1.621590 0.559631 -0.115701
v 1.694187 0.468125 -0.059996
v 1.793356 0.434631 0.016099
v 1.892525 0.468125 0.092195
v 1.965122 0.559631 0.147900
v 2.082534 0.684631 0.032338
v 2.053528 0.809631 0.015591
v 1.974281 0.901137 -0.030162
v 1.866028 0.934631 -0.092662
v 1.757775 0.901137 -0.155162
v 1.678528 0.809631 -0.200915
v 1.649521 0.684631 -0.217662
v 1.678528 0.559631 -0.200915
v 1.757775 0.468125 -0.155162
v 1.866028 0.434631 -0.092662
v 1.974281 0.468125 -0.030162
v 2.053528 0.559631 0.015591
v 2.154852 0.684631 -0.114307
v 2.123908 0.809631 -0.127125
v 2.039367 0.901137 -0.162143
v 1.923882 0.934631 -0.209978
v 1.808397 0.901137 -0.257814
v 1.723856 0.809631 -0.292832
v 1.692912 0.684631 -0.305649
v 1.723856 0.559631 -0.292832
v 1.808397 0.468125 -0.257814
v 1.923882 0.434631 -0.209978
v 2.039367 0.468125 -0.162143
v 2.123908 0.559631 -0.127125
v 2.207410 0.684631 -0.269138
v 2.175057 0.809631 -0.277807
v 2.086669 0.901137 -0.301491
v 1.965928 0.934631 -0.333843
v 1.845188 0.901137 -0.366195
v 1.756799 0.809631 -0.389879
v 1.724447 0.684631 -0.398548
v 1.756799 0.559631 -0.389879
v 1.845188 0.468125 -0.366195
v 1.965928 0.434631 -0.333843
v 2.086669 0.468125 -0.301491
v 2.175057 0.559631 -0.277807
v 2.239308 0.684631 -0.429504
v 2.206101 0.809631 -0.433876
v 2.115378 0.901137 -0.445820
v 1.991447 0.934631 -0.462136
v 1.867517 0.901137 -0.478452
v 1.776793 0.809631 -0.490395
v 1.743586 0.684631 -0.494767
v 1.776793 0.559631 -0.490395
v 1.867517 0.468125 -0.478452
v 1.991447 0.434631 -0.462136
v 2.115378 0.468125 -0.445820
v 2.206101 0.559631 -0.433876
s off
f 13 2 1
f 2 15 3
f 15 4 3
f 16 5 4
f 17 6 5
f 6 19 7
f 19 8 7
f 20 9 8
f 21 10 9
f 22 11 10
f 23 12 11
f 24 1 12
f 25 14 13
f 26 15 14
f 27 16 15
f 28 17 16
f 17 30 18
f 30 19 18
f 31 20 19
f 32 21 20
f 21 34 22
f 22 35 23
f 23 36 24
f 36 13 24
f 25 38 26
f 38 27 26
f 39 28 27
f 28 41 29
f 29 42 30
f 30 43 31
f 43 32 31
f 44 33 32
f 33 46 34
f 34 47 35
f 35 48 36
f 48 25 36
f 37 50 38
f 38 51 39
f 39 52 40
f 52 41 40
f 41 54 42
f 54 43 42
f 55 44 43
f 56 45 44
f 45 58 46
f 58 47 46
f 59 48 47
f 60 37 48
f 61 50 49
f 50 63 51
f 63 52 51
f 64 53 52
f 53 66 54
f 66 55 54
f 67 56 55
f 68 57 56
f 69 58 57
f 70 59 58
f 71 60 59
f 60 61 49
f 73 62 61
f 74 63 62
f 75 64 63
f 76 65 64
f 77 66 65
f 78 67 66
f 67 80 68
f 80 69 68
f 81 70 69
f 82 71 70
f 71 84 72
f 84 61 72
f 85 74 73
f 74 87 75
f 87 76 75
f 88 77 76
f 77 90 78
f 90 79 78
f 91 80 79
f 92 81 80
f 81 94 82
f 82 95 83
f 95 84 83
f 96 73 84
f 97 86 85
f 86 99 87
f 87 100 88
f 100 89 88
f 89 102 90
f 102 91 90
f 103 92 91
f 104 93 92
f 105 94 93
f 106 95 94
f 107 96 95
f 108 85 96
f 97 110 98
f 110 99 98
f 111 100 99
f 112 101 100
f 113 102 101
f 114 103 102
f 115 104 103
f 116 105 104
f 105 118 106
f 106 119 107
f 119 108 107
f 120 97 108
f 121 110 109
f 122 111 110
f 123 112 111
f 124 113 112
f 113 126 114
f 126 115 114
f 127 116 115
f 128 117 116
f 129 118 117
f 130 119 118
f 131 120 119
f 132 109 120
f 133 122 121
f 134 123 122
f 123 136 124
f 136 125 124
f 137 126 125
f 138 127 126
f 127 140 128
f 140 129 128
f 129 142 130
f 142 131 130
f 143 132 131
f 144 121 132
f 145 134 133
f 146 135 134
f 147 136 135
f 136 149 137
f 137 150 138
f 150 139 138
f 151 140 139
f 152 141 140
f 153 142 141
f 154 143 142
f 155 144 143
f 144 145 133
f 157 146 145
f 158 147 146
f 159 148 147
f 160 149 148
f 161 150 149
f 162 151 150
f 151 164 152
f 164 153 152
f 153 166 154
f 154 167 155
f 155 168 156
f 156 157 145
f 169 158 157
f 158 171 159
f 159 172 160
f 172 161 160
f 173 162 161
f 174 163 162
f 175 164 163
f 176 165 164
f 177 166 165
f 178 167 166
f 179 168 167
f 180 157 168
f 181 170 169
f 182 171 170
f 183 172 171
f 172 185 173
f 185 174 173
f 186 175 174
f 187 176 175
f 188 177 176
f 177 190 178
f 190 179 178
f 179 192 180
f 192 169 180
f 193 182 181
f 182 195 183
f 195 184 183
f 196 185 184
f 197 186 185
f 198 187 186
f 199 188 187
f 200 189 188
f 201 190 189
f 202 191 190
f 203 192 191
f 204 181 192
f 205 194 193
f 206 195 194
f 207 196 195
f 208 197 196
f 209 198 197
f 198 211 199
f 211 200 199
f 200 213 201
f 201 214 202
f 202 215 203
f 203 216 204
f 216 193 204
f 217 206 205
f 218 207 206
f 207 220 208
f 220 209 208
f 221 210 209
f 222 211 210
f 223 212 211
f 212 225 213
f 225 214 213
f 226 215 214
f 227 216 215
f 228 205 216
f 229 218 217
f 230 219 218
f 231 220 219
f 220 233 221
f 233 222 221
f 234 223 222
f 235 224 223
f 224 237 225
f 237 226 225
f 238 227 226
f 227 240 228
f 240 217 228
f 229 242 230
f 242 231 230
f 231 244 232
f 244 233 232
f 245 234 233
f 246 235 234
f 247 236 235
f 248 237 236
f 237 250 238
f 250 239 238
f 251 240 239
f 252 229 240
f 253 242 241
f 254 243 242
f 255 244 243
f 244 257 245
f 257 246 245
f 258 247 246
f 247 260 248
f 260 249 248
f 261 250 249
f 262 251 250
f 251 264 252
f 264 241 252
f 253 266 254
f 266 255 254
f 267 256 255
f 256 269 257
f 269 258 257
f 270 259 258
f 271 260 259
f 272 261 260
f 273 262 261
f 262 275 263
f 275 264 263
f 276 253 264
f 277 266 265
f 278 267 266
f 279 268 267
f 280 269 268
f 281 270 269
f 282 271 270
f 283 272 271
f 272 285 273
f 273 286 274
f 274 287 275
f 275 288 276
f 276 277 265
f 277 290 278
f 290 279 278
f 291 280 279
f 292 281 280
f 293 282 281
f 294 283 282
f 295 284 283
f 284 297 285
f 297 286 285
f 298 287 286
f 299 288 287
f 300 277 288
f 301 290 289
f 302 291 290
f 303 292 291
f 304 293 292
f 305 294 293
f 306 295 294
f 295 308 296
f 308 297 296
f 297 310 298
f 298 311 299
f 299 312 300
f 300 301 289
f 301 314 302
f 302 315 303
f 303 316 304
f 304 317 305
f 305 318 306
f 318 307 306
f 319 308 307
f 320 309 308
f 321 310 309
f 322 311 310
f 323 312 311
f 312 313 301
f 325 314 313
f 326 315 314
f 315 328 316
f 328 317 316
f 329 318 317
f 330 319 318
f 331 320 319
f 320 333 321
f 333 322 321
f 334 323 322
f 323 336 324
f 324 325 313
f 337 326 325
f 338 327 326
f 339 328 327
f 340 329 328
f 341 330 329
f 330 343 331
f 343 332 331
f 344 333 332
f 345 334 333
f 334 347 335
f 335 348 336
f 348 325 336
f 349 338 337
f 350 339 338
f 351 340 339
f 340 353 341
f 353 342 341
f 354 343 342
f 355 344 343
f 344 357 345
f 357 346 345
f 358 347 346
f 347 360 348
f 360 337 348
f 361 350 349
f 350 363 351
f 363 352 351
f 364 353 352
f 365 354 353
f 366 355 354
f 367 356 355
f 368 357 356
f 357 370 358
f 370 359 358
f 371 360 359
f 372 349 360
f 361 374 362
f 362 375 363
f 375 364 363
f 364 377 365
f 377 366 365
f 378 367 366
f 379 368 367
f 380 369 368
f 381 370 369
f 382 371 370
f 383 372 371
f 384 361 372
f 373 386 374
f 386 375 374
f 387 376 375
f 388 377 376
f 377 390 378
f 390 379 378
f 391 380 379
f 392 381 380
f 393 382 381
f 382 395 383
f 383 396 384
f 396 373 384
f 397 386 385
f 398 387 386
f 399 388 387
f 400 389 388
f 401 390 389
f 402 391 390
f 403 392 391
f 404 393 392
f 393 406 394
f 406 395 394
f 395 408 396
f 408 385 396
f 409 398 397
f 410 399 398
f 411 400 399
f 412 401 400
f 401 414 402
f 414 403 402
f 415 404 403
f 416 405 404
f 417 406 405
f 418 407 406
f 407 420 408
f 420 397 408
f 421 410 409
f 410 423 411
f 423 412 411
f 424 413 412
f 413 426 414
f 426 415 414
f 427 416 415
f 428 417 416
f 417 430 418
f 430 419 418
f 431 420 419
f 432 409 420
f 433 422 421
f 434 423 422
f 423 436 424
f 424 437 425
f 437 426 425
f 426 439 427
f 439 428 427
f 440 429 428
f 441 430 429
f 442 431 430
f 443 432 431
f 444 421 432
f 433 446 434
f 446 435 434
f 447 436 435
f 448 437 436
f 449 438 437
f 450 439 438
f 451 440 439
f 440 453 441
f 441 454 442
f 454 443 442
f 455 444 443
f 456 433 444
f 457 446 445
f 458 447 446
f 459 448 447
f 460 449 448
f 461 450 449
f 450 463 451
f 463 452 451
f 464 453 452
f 453 466 454
f 454 467 455
f 467 456 455
f 468 445 456
f 469 458 457
f 470 459 458
f 471 460 459
f 472 461 460
f 473 462 461
f 474 463 462
f 475 464 463
f 476 465 464
f 477 466 465
f 466 479 467
f 467 480 468
f 480 457 468
f 481 470 469
f 482 471 470
f 471 484 472
f 472 485 473
f 485 474 473
f 486 475 474
f 487 476 475
f 488 477 476
f 489 478 477
f 490 479 478
f 491 480 479
f 480 481 469
f 481 494 482
f 494 483 482
f 495 484 483
f 496 485 484
f 497 486 485
f 498 487 486
f 499 488 487
f 500 489 488
f 501 490 489
f 502 491 490
f 491 504 492
f 504 481 492
f 493 506 494
f 506 495 494
f 495 508 496
f 496 509 497
f 497 510 498
f 510 499 498
f 511 500 499
f 512 501 500
f 513 502 501
f 514 503 502
f 503 516 504
f 516 493 504
f 505 518 506
f 518 507 506
f 507 520 508
f 520 509 508
f 521 510 509
f 522 511 510
f 523 512 511
f 512 525 513
f 513 526 514
f 526 515 514
f 527 516 515
f 528 505 516
f 529 518 517
f 530 519 518
f 531 520 519
f 532 521 520
f 533 522 521
f 534 523 522
f 535 524 523
f 524 537 525
f 537 526 525
f 538 527 526
f 527 540 528
f 540 517 528
f 541 530 529
f 542 531 530
f 531 544 532
f 544 533 532
f 545 534 533
f 546 535 534
f 547 536 535
f 548 537 536
f 549 538 537
f 550 539 538
f 551 540 539
f 552 529 540
f 553 542 541
f 554 543 542
f 555 544 543
f 556 545 544
f 557 546 545
f 558 547 546
f 559 548 547
f 548 561 549
f 561 550 549
f 562 551 550
f 563 552 551
f 564 541 552
f 553 566 554
f 554 567 555
f 555 568 556
f 568 557 556
f 569 558 557
f 558 571 559
f 571 560 559
f 572 561 560
f 561 574 562
f 574 563 562
f 575 564 563
f 576 553 564
f 1 566 565
f 2 567 566
f 3 568 567
f 4 569 568
f 5 570 569
f 6 571 570
f 571 8 572
f 8 573 572
f 9 574 573
f 10 575 574
f 575 12 576
f 576 1 565
f 13 14 2
f 2 14 15
f 15 16 4
f 16 17 5
f 17 18 6
f 6 18 19
f 19 20 8
f 20 21 9
f 21 22 10
f 22 23 11
f 23 24 12
f 24 13 1
f 25 26 14
f 26 27 15
f 27 28 16
f 28 29 17
f 17 29 30
f 30 31 19
f 31 32 20
f 32 33 21
f 21 33 34
f 22 34 35
f 23 35 36
f 36 25 13
f 25 37 38
f 38 39 27
f 39 40 28
f 28 40 41
f 29 41 42
f 30 42 43
f 43 44 32
f 44 45 33
f 33 45 46
f 34 46 47
f 35 47 48
f 48 37 25
f 37 49 50
f 38 50 51
f 39 51 52
f 52 53 41
f 41 53 54
f 54 55 43
f 55 56 44
f 56 57 45
f 45 57 58
f 58 59 47
f 59 60 48
f 60 49 37
f 61 62 50
f 50 62 63
f 63 64 52
f 64 65 53
f 53 65 66
f 66 67 55
f 67 68 56
f 68 69 57
f 69 70 58
f 70 71 59
f 71 72 60
f 60 72 61
f 73 74 62
f 74 75 63
f 75 76 64
f 76 77 65
f 77 78 66
f 78 79 67
f 67 79 80
f 80 81 69
f 81 82 70
f 82 83 71
f 71 83 84
f 84 73 61
f 85 86 74
f 74 86 87
f 87 88 76
f 88 89 77
f 77 89 90
f 90 91 79
f 91 92 80
f 92 93 81
f 81 93 94
f 82 94 95
f 95 96 84
f 96 85 73
f 97 98 86
f 86 98 99
f 87 99 100
f 100 101 89
f 89 101 102
f 102 103 91
f 103 104 92
f 104 105 93
f 105 106 94
f 106 107 95
f 107 108 96
f 108 97 85
f 97 109 110
f 110 111 99
f 111 112 100
f 112 113 101
f 113 114 102
f 114 115 103
f 115 116 104
f 116 117 105
f 105 117 118
f 106 118 119
f 119 120 108
f 120 109 97
f 121 122 110
f 122 123 111
f 123 124 112
f 124 125 113
f 113 125 126
f 126 127 115
f 127 128 116
f 128 129 117
f 129 130 118
f 130 131 119
f 131 132 120
f 132 121 109
f 133 134 122
f 134 135 123
f 123 135 136
f 136 137 125
f 137 138 126
f 138 139 127
f 127 139 140
f 140 141 129
f 129 141 142
f 142 143 131
f 143 144 132
f 144 133 121
f 145 146 134
f 146 147 135
f 147 148 136
f 136 148 149
f 137 149 150
f 150 151 139
f 151 152 140
f 152 153 141
f 153 154 142
f 154 155 143
f 155 156 144
f 144 156 145
f 157 158 146
f 158 159 147
f 159 160 148
f 160 161 149
f 161 162 150
f 162 163 151
f 151 163 164
f 164 165 153
f 153 165 166
f 154 166 167
f 155 167 168
f 156 168 157
f 169 170 158
f 158 170 171
f 159 171 172
f 172 173 161
f 173 174 162
f 174 175 163
f 175 176 164
f 176 177 165
f 177 178 166
f 178 179 167
f 179 180 168
f 180 169 157
f 181 182 170
f 182 183 171
f 183 184 172
f 172 184 185
f 185 186 174
f 186 187 175
f 187 188 176
f 188 189 177
f 177 189 190
f 190 191 179
f 179 191 192
f 192 181 169
f 193 194 182
f 182 194 195
f 195 196 184
f 196 197 185
f 197 198 186
f 198 199 187
f 199 200 188
f 200 201 189
f 201 202 190
f 202 203 191
f 203 204 192
f 204 193 181
f 205 206 194
f 206 207 195
f 207 208 196
f 208 209 197
f 209 210 198
f 198 210 211
f 211 212 200
f 200 212 213
f 201 213 214
f 202 214 215
f 203 215 216
f 216 205 193
f 217 218 206
f 218 219 207
f 207 219 220
f 220 221 209
f 221 222 210
f 222 223 211
f 223 224 212
f 212 224 225
f 225 226 214
f 226 227 215
f 227 228 216
f 228 217 205
f 229 230 218
f 230 231 219
f 231 232 220
f 220 232 233
f 233 234 222
f 234 235 223
f 235 236 224
f 224 236 237
f 237 238 226
f 238 239 227
f 227 239 240
f 240 229 217
f 229 241 242
f 242 243 231
f 231 243 244
f 244 245 233
f 245 246 234
f 246 247 235
f 247 248 236
f 248 249 237
f 237 249 250
f 250 251 239
f 251 252 240
f 252 241 229
f 253 254 242
f 254 255 243
f 255 256 244
f 244 256 257
f 257 258 246
f 258 259 247
f 247 259 260
f 260 261 249
f 261 262 250
f 262 263 251
f 251 263 264
f 264 253 241
f 253 265 266
f 266 267 255
f 267 268 256
f 256 268 269
f 269 270 258
f 270 271 259
f 271 272 260
f 272 273 261
f 273 274 262
f 262 274 275
f 275 276 264
f 276 265 253
f 277 278 266
f 278 279 267
f 279 280 268
f 280 281 269
f 281 282 270
f 282 283 271
f 283 284 272
f 272 284 285
f 273 285 286
f 274 286 287
f 275 287 288
f 276 288 277
f 277 289 290
f 290 291 279
f 291 292 280
f 292 293 281
f 293 294 282
f 294 295 283
f 295 296 284
f 284 296 297
f 297 298 286
f 298 299 287
f 299 300 288
f 300 289 277
f 301 302 290
f 302 303 291
f 303 304 292
f 304 305 293
f 305 306 294
f 306 307 295
f 295 307 308
f 308 309 297
f 297 309 310
f 298 310 311
f 299 311 312
f 300 312 301
f 301 313 314
f 302 314 315
f 303 315 316
f 304 316 317
f 305 317 318
f 318 319 307
f 319 320 308
f 320 321 309
f 321 322 310
f 322 323 311
f 323 324 312
f 312 324 313
f 325 326 314
f 326 327 315
f 315 327 328
f 328 329 317
f 329 330 318
f 330 331 319
f 331 332 320
f 320 332 333
f 333 334 322
f 334 335 323
f 323 335 336
f 324 336 325
f 337 338 326
f 338 339 327
f 339 340 328
f 340 341 329
f 341 342 330
f 330 342 343
f 343 344 332
f 344 345 333
f 345 346 334
f 334 346 347
f 335 347 348
f 348 337 325
f 349 350 338
f 350 351 339
f 351 352 340
f 340 352 353
f 353 354 342
f 354 355 343
f 355 356 344
f 344 356 357
f 357 358 346
f 358 359 347
f 347 359 360
f 360 349 337
f 361 362 350
f 350 362 363
f 363 364 352
f 364 365 353
f 365 366 354
f 366 367 355
f 367 368 356
f 368 369 357
f 357 369 370
f 370 371 359
f 371 372 360
f 372 361 349
f 361 373 374
f 362 374 375
f 375 376 364
f 364 376 377
f 377 378 366
f 378 379 367
f 379 380 368
f 380 381 369
f 381 382 370
f 382 383 371
f 383 384 372
f 384 373 361
f 373 385 386
f 386 387 375
f 387 388 376
f 388 389 377
f 377 389 390
f 390 391 379
f 391 392 380
f 392 393 381
f 393 394 382
f 382 394 395
f 383 395 396
f 396 385 373
f 397 398 386
f 398 399 387
f 399 400 388
f 400 401 389
f 401 402 390
f 402 403 391
f 403 404 392
f 404 405 393
f 393 405 406
f 406 407 395
f 395 407 408
f 408 397 385
f 409 410 398
f 410 411 399
f 411 412 400
f 412 413 401
f 401 413 414
f 414 415 403
f 415 416 404
f 416 417 405
f 417 418 406
f 418 419 407
f 407 419 420
f 420 409 397
f 421 422 410
f 410 422 423
f 423 424 412
f 424 425 413
f 413 425 426
f 426 427 415
f 427 428 416
f 428 429 417
f 417 429 430
f 430 431 419
f 431 432 420
f 432 421 409
f 433 434 422
f 434 435 423
f 423 435 436
f 424 436 437
f 437 438 426
f 426 438 439
f 439 440 428
f 440 441 429
f 441 442 430
f 442 443 431
f 443 444 432
f 444 433 421
f 433 445 446
f 446 447 435
f 447 448 436
f 448 449 437
f 449 450 438
f 450 451 439
f 451 452 440
f 440 452 453
f 441 453 454
f 454 455 443
f 455 456 444
f 456 445 433
f 457 458 446
f 458 459 447
f 459 460 448
f 460 461 449
f 461 462 450
f 450 462 463
f 463 464 452
f 464 465 453
f 453 465 466
f 454 466 467
f 467 468 456
f 468 457 445
f 469 470 458
f 470 471 459
f 471 472 460
f 472 473 461
f 473 474 462
f 474 475 463
f 475 476 464
f 476 477 465
f 477 478 466
f 466 478 479
f 467 479 480
f 480 469 457
f 481 482 470
f 482 483 471
f 471 483 484
f 472 484 485
f 485 486 474
f 486 487 475
f 487 488 476
f 488 489 477
f 489 490 478
f 490 491 479
f 491 492 480
f 480 492 481
f 481 493 494
f 494 495 483
f 495 496 484
f 496 497 485
f 497 498 486
f 498 499 487
f 499 500 488
f 500 501 489
f 501 502 490
f 502 503 491
f 491 503 504
f 504 493 481
f 493 505 506
f 506 507 495
f 495 507 508
f 496 508 509
f 497 509 510
f 510 511 499
f 511 512 500
f 512 513 501
f 513 514 502
f 514 515 503
f 503 515 516
f 516 505 493
f 505 517 518
f 518 519 507
f 507 519 520
f 520 521 509
f 521 522 510
f 522 523 511
f 523 524 512
f 512 524 525
f 513 525 526
f 526 527 515
f 527 528 516
f 528 517 505
f 529 530 518
f 530 531 519
f 531 532 520
f 532 533 521
f 533 534 522
f 534 535 523
f 535 536 524
f 524 536 537
f 537 538 526
f 538 539 527
f 527 539 540
f 540 529 517
f 541 542 530
f 542 543 531
f 531 543 544
f 544 545 533
f 545 546 534
f 546 547 535
f 547 548 536
f 548 549 537
f 549 550 538
f 550 551 539
f 551 552 540
f 552 541 529
f 553 554 542
f 554 555 543
f 555 556 544
f 556 557 545
f 557 558 546
f 558 559 547
f 559 560 548
f 548 560 561
f 561 562 550
f 562 563 551
f 563 564 552
f 564 553 541
f 553 565 566
f 554 566 567
f 555 567 568
f 568 569 557
f 569 570 558
f 558 570 571
f 571 572 560
f 572 573 561
f 561 573 574
f 574 575 563
f 575 576 564
f 576 565 553
f 1 2 566
f 2 3 567
f 3 4 568
f 4 5 569
f 5 6 570
f 6 7 571
f 571 7 8
f 8 9 573
f 9 10 574
f 10 11 575
f 575 11 12
f 576 12 1
